Nama	: Dwi Bagia Santosa
NIM	: 1207050030
Kelas	: IF'B
Kelompok: 3

7. Buatlah fungsi roman yang menerima angka dalam sistem deside (1..10) dan mengembalikan angka romawinya. 

Jawaban :

#include <iostream>
#include<conio.h>

using namespace std;

int rom(int angka);

int main()
{
	int angka;
	
	cout<<"Konversi Desimal ke angka romawi"<<endl;
	
	cout<<"Masukan angka(1 s/d 10) :"; cin>>angka;
	if(angka<1||angka>10)
	{
		cout<<"angka harus dalam jangkauan 1 s/d 10";
	}
	else
	{
		rom(angka);
	}

getch();

return 0;

}

//fungsi roman

int rom(int angka)
{
	while(angka>=10)
	{
		if(angka=10)
		{
			printf("X");
			angka=angka-10;
		}
	}
	
	if(angka>=5)
	{
		if(angka>=9)
		{
			printf("IX");
			angka=angka-9;
		}
		else
		{
			printf("V");
			angka=angka-5;
		}
	}
	
	while(angka>=1)
	{
		if(angka>=4)
		{
			printf("IV");
			angka=angka-4;
		}
		else
		{
			printf("I");
			angka=angka-1;
		}
	}
return(angka);

}